(cd ../../../react/event-loop && patch) < "StreamSelectLoop.php.0000000000.patch"
(cd ../../../react/stream/src && patch) < "Buffer.php.0000000000.patch"
(cd ../../../react/zmq/src/React/ZMQ && patch) < "Buffer.php.1442507088.patch"
(cd ../../../react/socket-client/src && patch) < "Connector.php.1443095361.patch"
